<?xml version="1.0" encoding="UTF-8"?>
<svg width="69px" height="69px" viewBox="0 0 69 69" version="1.1" xmlns="http://www.w3.org/2000/svg" xmlns:xlink="http://www.w3.org/1999/xlink">
    <!-- Generator: Sketch 47.1 (45422) - http://www.bohemiancoding.com/sketch -->
    <title>pipette</title>
    <desc>Created with Sketch.</desc>
    <defs></defs>
    <g id="Page-1" stroke="none" stroke-width="1" fill="none" fill-rule="evenodd">
        <g id="Assets" transform="translate(-389.000000, -563.000000)" fill-rule="nonzero" fill="#C8C8C8">
            <g id="pipette" transform="translate(389.000000, 563.000000)">
                <path d="M65.5,3.8 L65.5,3.8 C63.5,1.7 60.8,0.6 57.9,0.5 C54.9,0.5 52.3,1.6 50.2,3.6 L44.8,8.9 C42.6,7.5 39.7,7.8 37.9,9.6 C35.8,11.7 35.7,15 37.6,17.2 L9.9,45.5 C6.3,49.2 4.3,55.5 3.2,58.9 L3.1,59.2 C3,59.7 1.9,61.5 0.8,63 C0.3,63.8 0.4,64.8 1,65.4 L3.5,67.9 C3.9,68.3 4.3,68.5 4.8,68.5 C5.2,68.5 5.6,68.4 5.9,68.2 C7.4,67.1 9.2,66.1 9.7,65.9 L10,65.8 C13.4,64.7 19.8,62.7 23.4,59.1 L51.8,31.4 C52.8,32.2 54.1,32.7 55.4,32.7 L55.4,32.7 C56.9,32.7 58.3,32.1 59.3,31.1 C60.3,30.1 60.9,28.7 60.9,27.2 C60.9,26.1 60.6,25 59.9,24.1 L65.1,19.1 C69.5,14.9 69.6,8.1 65.5,3.8 Z M62.6,16.3 L57.5,21.3 L47.6,11.4 L52.9,6.3 C54.2,5 56,4.3 57.9,4.3 C59.8,4.3 61.5,5.1 62.8,6.4 C65.4,9.2 65.3,13.6 62.6,16.3 Z M57.2,27.2 C57.2,27.7 57,28.1 56.7,28.4 L56.7,28.4 C56.4,28.7 55.9,28.9 55.5,28.9 C55.5,28.9 55.5,28.9 55.5,28.9 C55,28.9 54.6,28.7 54.3,28.4 L40.5,14.7 C39.8,14 39.8,12.9 40.5,12.2 C40.8,11.9 41.3,11.7 41.7,11.7 C41.7,11.7 41.7,11.7 41.7,11.7 C42.2,11.7 42.6,11.9 42.9,12.2 L56.7,26 C57,26.3 57.2,26.7 57.2,27.2 Z M20.8,56.3 C17.8,59.2 12,61.1 8.9,62.1 L8.6,62.2 C7.9,62.4 6.7,63.1 5.1,64.1 L4.8,63.8 C5.6,62.6 6.4,61.2 6.7,60.3 L6.8,60 C7.8,56.9 9.7,51.1 12.6,48 L17.8,42.7 L20.6,45.6 C21.3,46.3 22.6,46.3 23.3,45.6 C24.1,44.9 24.1,43.7 23.3,42.9 L20.4,39.9 L21.8,38.5 L24.7,41.5 C25.4,42.2 26.7,42.2 27.4,41.5 C28.2,40.8 28.2,39.6 27.4,38.8 L24.4,35.7 L25.8,34.3 L28.9,37.4 C29.6,38.1 30.9,38.1 31.6,37.4 C32.4,36.7 32.4,35.5 31.6,34.7 L28.5,31.5 L29.9,30.1 L33.1,33.4 C33.8,34.1 35.1,34.1 35.8,33.4 C36.6,32.7 36.6,31.5 35.8,30.7 L32.6,27.4 L34,26 L37.3,29.4 C38,30.1 39.3,30.1 40,29.4 C40.8,28.7 40.8,27.5 40,26.7 L36.6,23.2 L40.2,19.5 L49.1,28.4 L20.8,56.3 L20.8,56.3 Z" id="Shape"></path>
            </g>
        </g>
    </g>
</svg>