<?xml version="1.0" encoding="UTF-8"?>
<svg width="69px" height="55px" viewBox="0 0 69 55" version="1.1" xmlns="http://www.w3.org/2000/svg" xmlns:xlink="http://www.w3.org/1999/xlink">
    <!-- Generator: Sketch 47.1 (45422) - http://www.bohemiancoding.com/sketch -->
    <title>scaleActive</title>
    <desc>Created with Sketch.</desc>
    <defs></defs>
    <g id="Page-1" stroke="none" stroke-width="1" fill="none" fill-rule="evenodd">
        <g id="Assets" transform="translate(-264.000000, -437.000000)" fill-rule="nonzero" fill="#F78629">
            <g id="scaleActive" transform="translate(264.000000, 437.000000)">
                <path d="M68.9955629,40.7053248 C69.001479,40.6220123 69.001479,40.5383849 68.9955629,40.4550725 C68.9955629,40.4550725 68.9955629,40.3907219 68.9955629,40.3621216 C68.9758308,40.2744731 68.9495464,40.1884304 68.9169315,40.1047192 L68.9169315,40.0546688 L68.9169315,40.0546688 L57.1007801,12.9487692 C57.1129197,12.4284014 56.8911798,11.9300007 56.4965659,11.5906877 C56.101952,11.2513747 55.5760374,11.1068968 55.0635126,11.1970031 L39.6517628,13.4492738 C38.9233328,11.8704985 37.5593227,10.6750718 35.8989017,10.1602435 L35.8989017,1.78751646 C35.8989017,0.800298378 35.0988001,0 34.1118249,0 C33.1248497,0 32.3247482,0.800298378 32.3247482,1.78751646 L32.3247482,10.1602435 C30.0432661,10.8517612 28.3700454,12.8043322 28.035764,15.1652896 L13.3316966,17.3103094 C12.357417,17.4538975 11.6828915,18.3588155 11.8234038,19.333778 C11.8234038,19.333778 11.8234038,19.3766784 11.8234038,19.4052787 L0.0858837534,46.5397785 L0.0858837534,46.5397785 L0.0858837534,46.5898289 C0.0532433437,46.6735312 0.0269583931,46.7595759 0.00725237673,46.8472313 C0.00725237673,46.8472313 0.00725237673,46.9115819 0.00725237673,46.9401822 C0.00136016981,47.0234955 0.00136016981,47.1071211 0.00725237673,47.1904345 C0.00725237673,47.1904345 0.00725237673,47.2261848 0.00725237673,47.247635 C0.00725237673,47.2690852 0.00725237673,47.247635 0.00725237673,47.247635 C-0.00241745891,47.3546679 -0.00241745891,47.462355 0.00725237673,47.569388 L0.00725237673,47.6337385 C0.0256224897,47.7139411 0.0495069769,47.7927793 0.0787354464,47.8696907 L0.121625288,47.9697916 C0.15127791,48.0336846 0.184695425,48.095761 0.221701586,48.1556934 L0.271739734,48.2414941 C0.329565207,48.3230254 0.394126322,48.3995611 0.464744023,48.4702962 L0.464744023,48.4702962 L2.25182076,50.2578127 C8.58604576,56.5807291 18.8422162,56.5807291 25.1764412,50.2578127 L25.1764412,50.2578127 L26.9635179,48.4702962 C27.0372838,48.3953351 27.1042633,48.3139828 27.1636705,48.227194 L27.2137087,48.1485433 C27.2534098,48.0864741 27.2892202,48.0219995 27.3209333,47.9554915 L27.3638231,47.8553906 C27.3930516,47.7784792 27.4169361,47.699641 27.4353062,47.6194384 L27.4353062,47.5550878 C27.445015,47.4480567 27.445015,47.340366 27.4353062,47.2333349 C27.4353062,47.2333349 27.4353062,47.2333349 27.4353062,47.2333349 C27.4353062,47.2333349 27.4353062,47.1975845 27.4353062,47.1761343 C27.4411747,47.0928202 27.4411747,47.0091962 27.4353062,46.925882 C27.4353062,46.925882 27.4353062,46.8615314 27.4353062,46.8329312 C27.4156265,46.7452688 27.389341,46.6592222 27.3566748,46.5755288 L27.3566748,46.5254783 L27.3566748,46.5254783 L16.0480532,20.5063888 L28.6147769,18.6759719 C29.77389,21.0760001 32.3554171,22.4466958 34.9922857,22.0621942 C37.6291543,21.6776926 39.7120063,19.6268487 40.1378477,16.9957065 L52.3757492,15.20819 L41.6175472,40.0546688 L41.6175472,40.0546688 L41.6175472,40.1047192 C41.5848811,40.1884126 41.5585955,40.2744592 41.5389159,40.3621216 C41.5389159,40.3621216 41.5389159,40.4264722 41.5389159,40.4550725 C41.5329756,40.5383841 41.5329756,40.6220131 41.5389159,40.7053248 C41.5389159,40.7053248 41.5389159,40.7410751 41.5389159,40.7625253 C41.5389159,40.7839755 41.5389159,40.7625253 41.5389159,40.7625253 C41.529246,40.8695582 41.529246,40.9772453 41.5389159,41.0842782 L41.5389159,41.1486288 C41.5572416,41.2288432 41.581127,41.3076845 41.6103989,41.384581 L41.6532888,41.4846819 C41.6850181,41.5511816 41.720828,41.6156552 41.7605134,41.6777337 L41.8105515,41.7563844 C41.8699886,41.8431508 41.936966,41.9245005 42.0107041,41.9994867 L43.7977809,43.7870031 C46.8371313,46.8289568 50.9604886,48.5380646 55.2600911,48.5380646 C59.5596935,48.5380646 63.6830508,46.8289568 66.7224013,43.7870031 L68.509478,41.9994867 L68.509478,41.9994867 C68.5801206,41.9287744 68.6446835,41.8522365 68.7024823,41.7706846 L68.7525205,41.6848838 C68.7895412,41.6249598 68.8229592,41.5628826 68.8525968,41.4989821 L68.8954866,41.3988811 C68.9247805,41.3219921 68.9486664,41.2431493 68.9669697,41.162929 L68.9669697,41.0985784 C68.9766395,40.9915455 68.9766395,40.8838583 68.9669697,40.7768254 C68.9669697,40.7768254 68.9669697,40.7768254 68.9669697,40.7768254 C68.9669697,40.7768254 68.9955629,40.726775 68.9955629,40.7053248 Z M45.9637179,38.9678588 L55.1993305,17.6177622 L64.4921295,38.9678588 L45.9637179,38.9678588 Z M4.446351,45.4672686 L13.7391501,24.110022 L23.0319491,45.4672686 L4.446351,45.4672686 Z M6.27631759,49.0423015 L21.1447961,49.0423015 C16.7121309,52.2645978 10.7089827,52.2645978 6.27631759,49.0423015 Z M34.1118249,18.5472708 C32.9550504,18.544271 31.9467024,17.7591539 31.6599556,16.6382032 C31.6677447,16.4800465 31.6434281,16.3219502 31.5884726,16.1734489 C31.5884726,16.1162484 31.5884726,16.0661979 31.5884726,16.0089974 C31.5908724,14.7245685 32.5521351,13.6443622 33.8273175,13.4931248 C35.1025,13.3418874 36.2896579,14.1672897 36.5922874,15.4155419 C36.5822027,15.5925113 36.6064773,15.7697595 36.6637705,15.9374967 C36.6637705,15.9374967 36.6637705,15.9875472 36.6637705,16.0089974 C36.6618773,16.6840865 36.3919482,17.3307731 35.9133649,17.8067923 C35.4347817,18.2828115 34.7867479,18.5491697 34.1118249,18.5472708 L34.1118249,18.5472708 Z M47.7865361,42.5428917 L62.6621629,42.5428917 C58.2354039,45.7913791 52.2132951,45.7913791 47.7865361,42.5428917 Z" id="Shape"></path>
            </g>
        </g>
    </g>
</svg>