<?xml version="1.0" encoding="UTF-8"?>
<svg width="286px" height="96px" viewBox="0 0 286 96" version="1.1" xmlns="http://www.w3.org/2000/svg" xmlns:xlink="http://www.w3.org/1999/xlink">
    <!-- Generator: Sketch 47.1 (45422) - http://www.bohemiancoding.com/sketch -->
    <title>title</title>
    <desc>Created with Sketch.</desc>
    <defs></defs>
    <g id="Page-1" stroke="none" stroke-width="1" fill="none" fill-rule="evenodd">
        <g id="Assets" transform="translate(-33.000000, -123.000000)" fill="#FFFFFF">
            <g id="title" transform="translate(33.000000, 123.000000)">
                <g id="Title" transform="translate(1.000000, 0.000000)">
                    <g id="Group-2">
                        <path d="M33.3070461,58.2149035 L0,58.2149035 L0,0.824351297 L33.3070461,0.824351297 L33.3070461,10.7950765 L12.2626892,10.7950765 L12.2626892,23.3958749 L31.8434348,23.3958749 L31.8434348,33.3666001 L12.2626892,33.3666001 L12.2626892,48.1656687 L33.3070461,48.1656687 L33.3070461,58.2149035 Z M80.1725268,42.2774451 C80.1725268,47.4591077 78.2935852,51.5415686 74.5356455,54.5249501 C70.7777058,57.5083316 65.5496331,59 58.8512705,59 C52.680338,59 47.2215181,57.8485367 42.4746469,55.5455755 L42.4746469,44.2401863 C46.3776298,45.9674072 49.6806115,47.1842945 52.3836909,47.8908849 C55.0867703,48.5974753 57.5590619,48.9507651 59.80064,48.9507651 C62.4905336,48.9507651 64.5540731,48.4404575 65.9913202,47.419827 C67.4285673,46.3991965 68.14718,44.8813585 68.14718,42.8662675 C68.14718,41.7409569 67.8307267,40.7399689 67.1978105,39.8632735 C66.5648944,38.986578 65.6353127,38.1426077 64.4090377,37.3313373 C63.1827626,36.5200669 60.6840999,35.2246707 56.9129745,33.4451098 C53.3791926,31.7963989 50.728896,30.2131369 48.962005,28.6952761 C47.1951141,27.1774153 45.7842597,25.4109659 44.7293994,23.3958749 C43.6745392,21.3807839 43.147117,19.025518 43.147117,16.3300067 C43.147117,11.2530241 44.8810175,7.26215691 48.3488706,4.35728543 C51.8167237,1.45241395 56.6096731,0 62.7278626,0 C65.7342143,0 68.6020726,0.35328988 71.3315235,1.05988024 C74.0609744,1.7664706 76.9156472,2.76091619 79.8956274,4.04324684 L75.9399212,13.5036593 C72.8544549,12.2474987 70.30305,11.3708164 68.2856297,10.8735862 C66.2682095,10.3763559 64.2837834,10.1277445 62.3322919,10.1277445 C60.0115994,10.1277445 58.2315494,10.6642217 56.9920886,11.7371923 C55.7526278,12.8101628 55.1329067,14.2102375 55.1329067,15.9374584 C55.1329067,17.010429 55.3834322,17.9459929 55.8844909,18.7441783 C56.3855495,19.5423637 57.1832756,20.3143675 58.2776931,21.0602129 C59.3721106,21.8060583 61.9630723,23.1472514 66.0506557,25.0838323 C71.4568146,27.6484936 75.1619556,30.2196589 77.1661901,32.7974052 C79.1704246,35.3751515 80.1725268,38.5351332 80.1725268,42.2774451 Z M115.882916,10.1277445 C111.267903,10.1277445 107.694617,11.8483971 105.162952,15.2897538 C102.631288,18.7311106 101.365474,23.5266936 101.365474,29.6766467 C101.365474,42.4737832 106.204573,48.8722555 115.882916,48.8722555 C119.944128,48.8722555 124.86234,47.8647251 130.6377,45.8496341 L130.6377,56.0558882 C125.890829,58.0186392 120.590236,59 114.735761,59 C106.323251,59 99.8886998,56.4680892 95.4319152,51.4041916 C90.9751306,46.340294 88.7467717,39.0716819 88.7467717,29.5981371 C88.7467717,23.631374 89.8411728,18.4039923 92.0300079,13.915835 C94.2188429,9.42767771 97.3635979,5.98637258 101.464367,3.59181637 C105.565136,1.19726015 110.371271,0 115.882916,0 C121.500047,0 127.143465,1.34773547 132.813339,4.04324684 L128.857632,13.9354624 C126.695169,12.9148319 124.519552,12.0250648 122.330717,11.2661344 C120.141882,10.507204 117.992637,10.1277445 115.882916,10.1277445 Z M179.006349,58.2149035 L174.813301,44.5542249 L153.729387,44.5542249 L149.536338,58.2149035 L136.32428,58.2149035 L156.735724,0.588822355 L171.72785,0.588822355 L192.218408,58.2149035 L179.006349,58.2149035 Z M171.886078,34.3479707 C168.009467,21.9695544 165.827257,14.9691809 165.339384,13.3466401 C164.851512,11.7240992 164.502094,10.4417878 164.291122,9.49966733 C163.420863,12.849429 160.928793,21.132114 156.814838,34.3479707 L171.886078,34.3479707 Z M212.422429,27.83167 L216.457249,27.83167 C220.228375,27.83167 223.050084,27.0923782 224.922461,25.6137725 C226.794838,24.1351667 227.731012,21.9827154 227.731012,19.156354 C227.731012,16.3038225 226.946471,14.197168 225.377367,12.8363273 C223.808262,11.4754867 221.349156,10.7950765 217.999975,10.7950765 L212.422429,10.7950765 L212.422429,27.83167 Z M240.112372,18.7245509 C240.112372,24.900674 238.167503,29.6242906 234.277706,32.8955422 C230.387909,36.1667939 224.856568,37.8023952 217.683518,37.8023952 L212.422429,37.8023952 L212.422429,58.2149035 L200.15974,58.2149035 L200.15974,0.824351297 L218.632888,0.824351297 C225.647708,0.824351297 230.981266,2.32256209 234.633719,5.31902861 C238.286173,8.31549513 240.112372,12.7839579 240.112372,18.7245509 Z M285,58.2149035 L251.692954,58.2149035 L251.692954,0.824351297 L285,0.824351297 L285,10.7950765 L263.955643,10.7950765 L263.955643,23.3958749 L283.536389,23.3958749 L283.536389,33.3666001 L263.955643,33.3666001 L263.955643,48.1656687 L285,48.1656687 L285,58.2149035 Z" id="ESCAPE"></path>
                    </g>
                </g>
                <text id="from-the-routine" font-family="OpenSans-Light, Open Sans" font-size="38" font-weight="300" letter-spacing="0.308376878">
                    <tspan x="0.398707628" y="95">from the routine</tspan>
                </text>
            </g>
        </g>
    </g>
</svg>