<?xml version="1.0" encoding="UTF-8"?>
<svg width="200px" height="200px" viewBox="0 0 200 200" version="1.1" xmlns="http://www.w3.org/2000/svg" xmlns:xlink="http://www.w3.org/1999/xlink">
    <!-- Generator: Sketch 48.2 (47327) - http://www.bohemiancoding.com/sketch -->
    <title>icon-geneticconstitution</title>
    <desc>Created with Sketch.</desc>
    <defs>
        <rect id="path-1" x="0" y="0" width="200" height="200" rx="5"></rect>
    </defs>
    <g id="Icons" stroke="none" stroke-width="1" fill="none" fill-rule="evenodd" transform="translate(-910.000000, -745.000000)">
        <g id="icon-geneticconstitution" transform="translate(910.000000, 745.000000)">
            <mask id="mask-2" fill="white">
                <use xlink:href="#path-1"></use>
            </mask>
            <use id="Rectangle-10" fill="#F0F0F0" xlink:href="#path-1"></use>
            <g id="icon_dna" mask="url(#mask-2)">
                <g transform="translate(32.000000, 32.000000)">
                    <rect id="Rectangle" x="0" y="0" width="136" height="136"></rect>
                    <g id="Group" stroke-width="1" fill-rule="evenodd" transform="translate(36.000000, 0.000000)">
                        <path d="M59.0113054,116.209131 C62.1499337,118.733842 64.5951442,121.862861 66.2771656,125.512835 C67.8625809,128.950041 68.6987613,132.788655 68.6987613,136.613012 C68.6987613,139.035726 66.7762977,141 64.405152,141 C62.0340063,141 60.1115427,139.035726 60.1115427,136.613012 C60.1115427,134.072946 59.5587406,131.526299 58.5078797,129.252743 C57.3990551,126.84648 55.7803644,124.776918 53.6990373,123.104379 C51.8377577,121.605126 51.5146636,118.846807 52.9820046,116.943951 C54.4514923,115.038902 57.1500258,114.713168 59.0113054,116.209131 Z M58.9561683,53.6886625 C62.1123108,56.1230505 64.5711659,59.1398734 66.2636527,62.6566814 C67.855756,65.9684214 68.6987613,69.6670421 68.6987613,73.3540353 C68.6987613,77.0399713 67.8579148,80.7396491 66.2636527,84.0524462 C64.5700866,87.5703112 62.1123108,90.5860771 58.9561683,93.019408 L28.8961783,116.188904 L34.6979107,116.188904 C37.0822879,116.188904 39.0154791,118.082082 39.0154791,120.417107 C39.0154791,122.752132 37.0822879,124.64531 34.6979107,124.64531 L18.0482879,124.64531 C16.4551052,126.085013 15.1673905,127.76361 14.246669,129.677929 C13.806277,130.593335 13.4522364,131.554194 13.1888648,132.54148 L42.7901132,132.531966 C42.792272,132.531966 42.792272,132.531966 42.792272,132.531966 C45.1766491,132.531966 47.1098403,134.424087 47.1098403,136.759112 C47.1098403,139.094137 45.1788078,140.987315 42.7944307,140.988372 L8.3197271,141 C8.31756832,141 8.31756832,141 8.31756832,141 C7.17341271,141 6.07459158,140.553925 5.26504752,139.761136 C4.45550346,138.968348 4,137.893328 4,136.77074 C4,133.084804 4.84084643,129.385126 6.43510853,126.072329 C8.05095848,122.714079 10.3835248,119.830444 13.3345827,117.457365 C13.3885523,117.403455 13.4511571,117.358002 13.5083648,117.307264 C13.5903986,117.241727 13.6594797,117.167733 13.7425929,117.10431 L53.6142569,86.3726727 C55.7071982,84.7606702 57.3349214,82.7660154 58.4499335,80.446846 C59.5055789,78.2555797 60.0625452,75.8011078 60.0625452,73.3529782 C60.0625452,70.9048486 59.5066583,68.4514337 58.4499335,66.2601675 C57.3349214,63.9409981 55.7071982,61.9474003 53.6142569,60.3343408 C51.7425911,58.8893524 51.4176941,56.2308697 52.893223,54.3968865 C54.3709108,52.5607893 57.0845025,52.2468453 58.9561683,53.6886625 Z M13.6863825,29.7908726 C10.5477541,27.266049 8.10254364,24.1357941 6.42159562,20.4867549 C4.83832721,17.0504941 4,13.212806 4,9.3871827 C4,6.96436105 5.92246354,5 8.29360926,5 C10.664755,5 12.5872185,6.96436105 12.5872185,9.3871827 C12.5872185,11.9273615 13.1400207,14.4730242 14.1908816,16.7466817 C15.2997062,19.1530514 16.9183969,21.221608 18.9997239,22.8953182 C20.8610036,24.3946379 21.1840976,27.153079 19.7167567,29.0560195 C18.8687689,30.1561056 17.6118147,30.7297297 16.3409064,30.7297297 C15.4091932,30.7297297 14.4742598,30.4237237 13.6863825,29.7908726 Z M68.6987613,9.22659105 C68.6987613,9.22764796 68.6987613,9.22764796 68.6987613,9.22659105 C68.6987613,12.914157 67.8546767,16.612292 66.2647321,19.9246542 C64.5711659,23.4410004 62.1133902,26.4563703 58.9572477,28.8904386 L28.8670347,52.0801446 L34.6979107,52.0801446 C37.0822879,52.0801446 39.0154791,53.973074 39.0154791,56.3077926 C39.0154791,58.6425112 37.0822879,60.5354406 34.6979107,60.5354406 L18.0245413,60.5354406 C16.4432319,61.9696701 15.1641523,63.6395911 14.2488278,65.5441465 C13.806277,66.4615461 13.4738243,67.4307344 13.2104526,68.420004 L42.792272,68.420004 C45.1766491,68.420004 47.1098403,70.3129334 47.1098403,72.647652 C47.1098403,74.9823706 45.1766491,76.8752999 42.792272,76.8752999 L13.2158496,76.8752999 C13.4781419,77.8561143 13.8095152,78.8189611 14.2477484,79.7289623 C15.1684698,81.6430299 16.457264,83.3214062 18.0493673,84.7609203 L34.6979107,84.7609203 C37.0822879,84.7609203 39.0154791,86.6538497 39.0154791,88.9885683 C39.0154791,91.3232868 37.0822879,93.2162162 34.6979107,93.2162162 L16.4140883,93.2162162 C15.9467115,93.2162162 15.5063196,93.1253218 15.0853567,92.991094 C15.0518955,92.9805248 15.0184344,92.9720695 14.9849732,92.9604435 C14.5499782,92.8093051 14.1495237,92.5958089 13.7911656,92.3252394 C13.7760541,92.3146703 13.7577044,92.3114996 13.7425929,92.2998735 C13.6594797,92.2354019 13.5903986,92.161418 13.5083648,92.0969464 C13.4511571,92.0462146 13.3885523,92.0007674 13.3345827,91.9468649 C10.3835248,89.5740975 8.05095848,86.6897847 6.43510853,83.3330322 C4.84408461,80.0291253 4.00539696,76.3394455 4.00107939,72.6613918 C4.00107939,72.6571642 4,72.6529365 4,72.647652 C4,72.6455381 4,72.6444812 4,72.6434243 C4,72.6413105 4,72.6381398 4,72.6360259 C4,68.9495169 4.84300521,65.2513819 6.43510853,61.9400766 C8.12867471,58.4237304 10.5864505,55.4083605 13.7425929,52.9742922 L43.8176944,29.7951553 L38.0008505,29.7951553 C35.6164734,29.7951553 33.6832822,27.9022259 33.6832822,25.5675073 C33.6832822,23.2327888 35.6164734,21.3398594 38.0008505,21.3398594 L54.6623467,21.3398594 C56.249053,19.9024591 57.5324502,18.2293674 58.4510129,16.3195274 C58.8914048,15.4063555 59.2227782,14.4424517 59.4850705,13.4574097 L29.9086481,13.466922 C29.9064893,13.466922 29.9064893,13.466922 29.9064893,13.466922 C27.5221122,13.466922 25.588921,11.5750495 25.588921,9.24033091 C25.588921,6.90561232 27.5199534,5.01268294 29.9043305,5.01162603 L64.3790342,5 C64.3811929,5 64.3811929,5 64.3811929,5 C66.76557,5 68.6987613,6.89187246 68.6987613,9.22659105 Z" id="Combined-Shape-Copy" fill="#D7D7D7" fill-rule="nonzero"></path>
                        <path d="M55.0113054,111.209131 C58.1499337,113.733842 60.5951442,116.862861 62.2771656,120.512835 C63.8625809,123.950041 64.6987613,127.788655 64.6987613,131.613012 C64.6987613,134.035726 62.7762977,136 60.405152,136 C58.0340063,136 56.1115427,134.035726 56.1115427,131.613012 C56.1115427,129.072946 55.5587406,126.526299 54.5078797,124.252743 C53.3990551,121.84648 51.7803644,119.776918 49.6990373,118.104379 C47.8377577,116.605126 47.5146636,113.846807 48.9820046,111.943951 C50.4514923,110.038902 53.1500258,109.713168 55.0113054,111.209131 Z M54.9561683,48.6886625 C58.1123108,51.1230505 60.5711659,54.1398734 62.2636527,57.6566814 C63.855756,60.9684214 64.6987613,64.6670421 64.6987613,68.3540353 C64.6987613,72.0399713 63.8579148,75.7396491 62.2636527,79.0524462 C60.5700866,82.5703112 58.1123108,85.5860771 54.9561683,88.019408 L24.8961783,111.188904 L30.6979107,111.188904 C33.0822879,111.188904 35.0154791,113.082082 35.0154791,115.417107 C35.0154791,117.752132 33.0822879,119.64531 30.6979107,119.64531 L14.0482879,119.64531 C12.4551052,121.085013 11.1673905,122.76361 10.246669,124.677929 C9.80627704,125.593335 9.45223644,126.554194 9.18886478,127.54148 L38.7901132,127.531966 C38.792272,127.531966 38.792272,127.531966 38.792272,127.531966 C41.1766491,127.531966 43.1098403,129.424087 43.1098403,131.759112 C43.1098403,134.094137 41.1788078,135.987315 38.7944307,135.988372 L4.3197271,136 C4.31756832,136 4.31756832,136 4.31756832,136 C3.17341271,136 2.07459158,135.553925 1.26504752,134.761136 C0.455503458,133.968348 3.15544362e-30,132.893328 3.15544362e-30,131.77074 C3.15544362e-30,128.084804 0.84084643,124.385126 2.43510853,121.072329 C4.05095848,117.714079 6.38352476,114.830444 9.33458271,112.457365 C9.38855231,112.403455 9.45115705,112.358002 9.50836483,112.307264 C9.59039863,112.241727 9.65947972,112.167733 9.74259291,112.10431 L49.6142569,81.3726727 C51.7071982,79.7606702 53.3349214,77.7660154 54.4499335,75.446846 C55.5055789,73.2555797 56.0625452,70.8011078 56.0625452,68.3529782 C56.0625452,65.9048486 55.5066583,63.4514337 54.4499335,61.2601675 C53.3349214,58.9409981 51.7071982,56.9474003 49.6142569,55.3343408 C47.7425911,53.8893524 47.4176941,51.2308697 48.893223,49.3968865 C50.3709108,47.5607893 53.0845025,47.2468453 54.9561683,48.6886625 Z M9.68638248,24.7908726 C6.54775412,22.266049 4.10254364,19.1357941 2.42159562,15.4867549 C0.838327207,12.0504941 3.15544362e-30,8.21280601 3.15544362e-30,4.3871827 C3.15544362e-30,1.96436105 1.92246354,0 4.29360926,0 C6.66475497,0 8.58721851,1.96436105 8.58721851,4.3871827 C8.58721851,6.92736148 9.1400207,9.47302424 10.1908816,11.7466817 C11.2997062,14.1530514 12.9183969,16.221608 14.9997239,17.8953182 C16.8610036,19.3946379 17.1840976,22.153079 15.7167567,24.0560195 C14.8687689,25.1561056 13.6118147,25.7297297 12.3409064,25.7297297 C11.4091932,25.7297297 10.4742598,25.4237237 9.68638248,24.7908726 Z M64.6987613,4.22659105 C64.6987613,4.22764796 64.6987613,4.22764796 64.6987613,4.22659105 C64.6987613,7.91415699 63.8546767,11.612292 62.2647321,14.9246542 C60.5711659,18.4410004 58.1133902,21.4563703 54.9572477,23.8904386 L24.8670347,47.0801446 L30.6979107,47.0801446 C33.0822879,47.0801446 35.0154791,48.973074 35.0154791,51.3077926 C35.0154791,53.6425112 33.0822879,55.5354406 30.6979107,55.5354406 L14.0245413,55.5354406 C12.4432319,56.9696701 11.1641523,58.6395911 10.2488278,60.5441465 C9.80627704,61.4615461 9.47382428,62.4307344 9.21045262,63.420004 L38.792272,63.420004 C41.1766491,63.420004 43.1098403,65.3129334 43.1098403,67.647652 C43.1098403,69.9823706 41.1766491,71.8752999 38.792272,71.8752999 L9.21584958,71.8752999 C9.47814185,72.8561143 9.80951522,73.8189611 10.2477484,74.7289623 C11.1684698,76.6430299 12.457264,78.3214062 14.0493673,79.7609203 L30.6979107,79.7609203 C33.0822879,79.7609203 35.0154791,81.6538497 35.0154791,83.9885683 C35.0154791,86.3232868 33.0822879,88.2162162 30.6979107,88.2162162 L12.4140883,88.2162162 C11.9467115,88.2162162 11.5063196,88.1253218 11.0853567,87.991094 C11.0518955,87.9805248 11.0184344,87.9720695 10.9849732,87.9604435 C10.5499782,87.8093051 10.1495237,87.5958089 9.79116556,87.3252394 C9.77605407,87.3146703 9.7577044,87.3114996 9.74259291,87.2998735 C9.65947972,87.2354019 9.59039863,87.161418 9.50836483,87.0969464 C9.45115705,87.0462146 9.38855231,87.0007674 9.33458271,86.9468649 C6.38352476,84.5740975 4.05095848,81.6897847 2.43510853,78.3330322 C0.844084606,75.0291253 0.0053969604,71.3394455 0.00107939208,67.6613918 C0.00107939208,67.6571642 3.15544362e-30,67.6529365 3.15544362e-30,67.647652 C3.15544362e-30,67.6455381 3.15544362e-30,67.6444812 3.15544362e-30,67.6434243 C3.15544362e-30,67.6413105 3.15544362e-30,67.6381398 3.15544362e-30,67.6360259 C3.15544362e-30,63.9495169 0.843005214,60.2513819 2.43510853,56.9400766 C4.12867471,53.4237304 6.58645047,50.4083605 9.74259291,47.9742922 L39.8176944,24.7951553 L34.0008505,24.7951553 C31.6164734,24.7951553 29.6832822,22.9022259 29.6832822,20.5675073 C29.6832822,18.2327888 31.6164734,16.3398594 34.0008505,16.3398594 L50.6623467,16.3398594 C52.249053,14.9024591 53.5324502,13.2293674 54.4510129,11.3195274 C54.8914048,10.4063555 55.2227782,9.44245172 55.4850705,8.45740975 L25.9086481,8.46692196 C25.9064893,8.46692196 25.9064893,8.46692196 25.9064893,8.46692196 C23.5221122,8.46692196 21.588921,6.57504949 21.588921,4.24033091 C21.588921,1.90561232 23.5199534,0.0126829439 25.9043305,0.0116260319 L60.3790342,0 C60.3811929,0 60.3811929,0 60.3811929,0 C62.76557,0 64.6987613,1.89187246 64.6987613,4.22659105 Z" id="Combined-Shape" fill="#E76120" fill-rule="nonzero"></path>
                    </g>
                </g>
            </g>
        </g>
    </g>
</svg>