<?xml version="1.0" encoding="UTF-8"?>
<svg width="77px" height="47px" viewBox="0 0 77 47" version="1.1" xmlns="http://www.w3.org/2000/svg" xmlns:xlink="http://www.w3.org/1999/xlink">
    <!-- Generator: Sketch 47.1 (45422) - http://www.bohemiancoding.com/sketch -->
    <title>ecosystem</title>
    <desc>Created with Sketch.</desc>
    <defs></defs>
    <g id="Page-1" stroke="none" stroke-width="1" fill="none" fill-rule="evenodd">
        <g id="Assets" transform="translate(-170.000000, -1492.000000)" fill-rule="nonzero" fill="#F78629">
            <g id="ecosystem" transform="translate(170.000000, 1492.000000)">
                <path d="M68.53,0 C63.85225,0 60.06,3.79467213 60.06,8.47540984 C60.06,10.2583279 60.61363,11.9118033 61.55303,13.2771148 L58.31364,16.5185738 C56.9492,15.5785738 55.29678,15.0245902 53.515,15.0245902 C51.73322,15.0245902 50.0808,15.5785738 48.71636,16.5185738 L45.47697,13.2771148 C46.41637,11.9118033 46.97,10.2583279 46.97,8.47540984 C46.97,3.79467213 43.17775,0 38.5,0 C33.82225,0 30.03,3.79467213 30.03,8.47540984 C30.03,10.2583279 30.58363,11.9118033 31.5238,13.2771148 L28.28364,16.5185738 C26.9192,15.5785738 25.26755,15.0245902 23.485,15.0245902 C21.70245,15.0245902 20.0508,15.5785738 18.68636,16.5185738 L15.4462,13.2771148 C16.38637,11.9118033 16.94,10.2583279 16.94,8.47540984 C16.94,3.79467213 13.14775,0 8.47,0 C3.79225,0 0,3.79467213 0,8.47540984 C0,13.1561475 3.79225,16.9508197 8.47,16.9508197 C10.25255,16.9508197 11.9042,16.3968361 13.26864,15.4568361 L16.5088,18.6982951 C15.56863,20.0636066 15.015,21.717082 15.015,23.5 C15.015,28.1807377 18.80725,31.9754098 23.485,31.9754098 C25.26755,31.9754098 26.9192,31.4214262 28.28364,30.4814262 L31.5238,33.7228852 C30.58363,35.0881967 30.03,36.7416721 30.03,38.5245902 C30.03,43.2053279 33.82225,47 38.5,47 C43.17775,47 46.97,43.2053279 46.97,38.5245902 C46.97,36.7416721 46.41637,35.0881967 45.47697,33.7228852 L48.71636,30.4814262 C50.0808,31.4214262 51.73322,31.9754098 53.515,31.9754098 C58.19275,31.9754098 61.985,28.1807377 61.985,23.5 C61.985,21.717082 61.43137,20.0636066 60.49197,18.6982951 L63.73136,15.4568361 C65.0958,16.3968361 66.74822,16.9508197 68.53,16.9508197 C73.20775,16.9508197 77,13.1561475 77,8.47540984 C77,3.79467213 73.20775,0 68.53,0 Z M46.53803,28.3017049 L43.29864,31.5431639 C41.9342,30.6031639 40.28178,30.0491803 38.5,30.0491803 C36.71745,30.0491803 35.0658,30.6031639 33.70136,31.5431639 L30.4612,28.3017049 C31.40137,26.9363934 31.955,25.282918 31.955,23.5 C31.955,21.717082 31.40137,20.0636066 30.4612,18.6982951 L33.70136,15.4568361 C35.0658,16.3968361 36.71745,16.9508197 38.5,16.9508197 C40.28178,16.9508197 41.9342,16.3968361 43.29864,15.4568361 L46.53803,18.6982951 C45.59863,20.0636066 45.045,21.717082 45.045,23.5 C45.045,25.282918 45.59863,26.9363934 46.53803,28.3017049 Z" id="Shape"></path>
            </g>
        </g>
    </g>
</svg>