<?xml version="1.0" encoding="UTF-8"?>
<svg width="226px" height="73px" viewBox="0 0 226 73" version="1.1" xmlns="http://www.w3.org/2000/svg" xmlns:xlink="http://www.w3.org/1999/xlink">
    <!-- Generator: Sketch 47.1 (45422) - http://www.bohemiancoding.com/sketch -->
    <title>lineRight</title>
    <desc>Created with Sketch.</desc>
    <defs></defs>
    <g id="Page-1" stroke="none" stroke-width="1" fill="none" fill-rule="evenodd">
        <g id="Assets" transform="translate(-453.000000, -1332.000000)">
            <g id="lineRight" transform="translate(454.000000, 1333.000000)">
                <path d="M-4.54747351e-13,65 L-4.54747351e-13,42.5607437 L-4.52970994e-13,42.5607437 C-4.53850254e-13,35.381042 5.82029825,29.5607437 13,29.5607437 L206,29.5607437 L206,29.5607437 C213.179702,29.5607437 219,23.7404455 219,16.5607437 L219,0" id="Path-12-Copy" stroke="#E76120" stroke-width="2" stroke-linecap="round" stroke-dasharray="4" transform="translate(109.500000, 32.500000) scale(-1, 1) translate(-109.500000, -32.500000) "></path>
                <g id="icon_dash" transform="translate(211.000000, 68.000000)">
                    <polygon id="Stroke-1" points="0 0 14 0 14 4 0 4"></polygon>
                    <rect id="reflector" fill="#E76120" x="0" y="0" width="14" height="4" rx="2"></rect>
                </g>
            </g>
        </g>
    </g>
</svg>