<?xml version="1.0" encoding="UTF-8"?>
<svg width="13px" height="16px" viewBox="0 0 13 16" version="1.1" xmlns="http://www.w3.org/2000/svg" xmlns:xlink="http://www.w3.org/1999/xlink">
    <!-- Generator: Sketch 47.1 (45422) - http://www.bohemiancoding.com/sketch -->
    <title>icon-grapharrow-down</title>
    <desc>Created with Sketch.</desc>
    <defs></defs>
    <g id="Guidelines" stroke="none" stroke-width="1" fill="none" fill-rule="evenodd">
        <g id="Icons" transform="translate(-676.000000, -474.000000)" fill-rule="nonzero" fill="#E13E52">
            <path d="M684.529071,483.593275 C684.277388,483.846568 684.073358,483.76191 684.073358,483.400115 L684.073358,474.651788 C684.073358,474.291816 683.786775,474 683.427614,474 L681.489759,474 C681.133124,474 680.844015,474.289993 680.844015,474.651788 L680.844015,483.400115 C680.844015,483.760087 680.638968,483.845544 680.388302,483.593275 L676.455713,479.635531 C676.20403,479.382238 676,479.467902 676,479.825677 L676,483.124323 C676,483.482631 676.204688,483.977635 676.458359,484.231121 L682.023278,489.791976 C682.276423,490.044936 682.684875,490.045462 682.93932,489.789389 L688.45969,484.233708 C688.712461,483.979319 688.917373,483.482098 688.917373,483.124323 L688.917373,479.825677 C688.917373,479.467369 688.712326,479.383262 688.46166,479.635531 L684.529071,483.593275 Z" id="icon-grapharrow-down"></path>
        </g>
    </g>
</svg>