<?xml version="1.0" encoding="UTF-8"?>
<svg width="22px" height="22px" viewBox="0 0 22 22" version="1.1" xmlns="http://www.w3.org/2000/svg" xmlns:xlink="http://www.w3.org/1999/xlink">
    <!-- Generator: Sketch 47.1 (45422) - http://www.bohemiancoding.com/sketch -->
    <title>icon-viewless-active</title>
    <desc>Created with Sketch.</desc>
    <defs></defs>
    <g id="Guidelines" stroke="none" stroke-width="1" fill="none" fill-rule="evenodd" stroke-linecap="round" stroke-linejoin="round">
        <g id="Icons" transform="translate(-844.000000, -210.000000)" stroke-width="2" stroke="#F47F36">
            <g id="icon-viewless-active" transform="translate(845.000000, 211.000000)">
                <g id="server">
                    <rect id="Rectangle-path" x="0" y="0" width="20" height="8" rx="2"></rect>
                    <rect id="Rectangle-path" x="0" y="12" width="20" height="8" rx="2"></rect>
                </g>
            </g>
        </g>
    </g>
</svg>