<?xml version="1.0" encoding="UTF-8"?>
<svg width="14px" height="14px" viewBox="0 0 14 14" version="1.1" xmlns="http://www.w3.org/2000/svg" xmlns:xlink="http://www.w3.org/1999/xlink">
    <!-- Generator: Sketch 47.1 (45422) - http://www.bohemiancoding.com/sketch -->
    <title>icon-checkbox-normal</title>
    <desc>Created with Sketch.</desc>
    <defs>
        <rect id="path-1" x="0" y="0" width="14" height="14" rx="4"></rect>
    </defs>
    <g id="Guidelines" stroke="none" stroke-width="1" fill="none" fill-rule="evenodd">
        <g id="Icons" transform="translate(-675.000000, -308.000000)">
            <g id="icon-checkbox-normal" transform="translate(673.000000, 305.000000)">
                <rect id="Rectangle-3" x="0" y="0" width="20" height="20"></rect>
                <g id="checkbox-active" transform="translate(2.000000, 3.000000)">
                    <g id="Rectangle-7-Copy-5">
                        <use fill="#FFFFFF" fill-rule="evenodd" xlink:href="#path-1"></use>
                        <rect stroke="#E3E3E3" stroke-width="2" x="1" y="1" width="12" height="12" rx="4"></rect>
                    </g>
                </g>
            </g>
        </g>
    </g>
</svg>